%YAML 1.1
%TAG !u! tag:unity3d.com,2011:
--- !u!74 &7400000
AnimationClip:
  m_ObjectHideFlags: 0
  m_CorrespondingSourceObject: {fileID: 0}
  m_PrefabInstance: {fileID: 0}
  m_PrefabAsset: {fileID: 0}
  m_Name: Falling
  serializedVersion: 6
  m_Legacy: 0
  m_Compressed: 0
  m_UseHighQualityCurve: 1
  m_RotationCurves: []
  m_CompressedRotationCurves: []
  m_EulerCurves: []
  m_PositionCurves: []
  m_ScaleCurves: []
  m_FloatCurves: []
  m_PPtrCurves:
  - curve:
    - time: 0
      value: {fileID: -6814648958607787102, guid: 38b31c722d1f44662838a0b4c2444110,
        type: 3}
    - time: 0.033333335
      value: {fileID: 3238160121105584486, guid: 38b31c722d1f44662838a0b4c2444110,
        type: 3}
    - time: 0.06666667
      value: {fileID: -2039709752086492608, guid: 38b31c722d1f44662838a0b4c2444110,
        type: 3}
    - time: 0.1
      value: {fileID: -2039709752086492608, guid: 38b31c722d1f44662838a0b4c2444110,
        type: 3}
    - time: 0.13333334
      value: {fileID: 3238160121105584486, guid: 38b31c722d1f44662838a0b4c2444110,
        type: 3}
    - time: 0.16666667
      value: {fileID: -2039709752086492608, guid: 38b31c722d1f44662838a0b4c2444110,
        type: 3}
    - time: 0.2
      value: {fileID: 3238160121105584486, guid: 38b31c722d1f44662838a0b4c2444110,
        type: 3}
    - time: 0.23333333
      value: {fileID: -2039709752086492608, guid: 38b31c722d1f44662838a0b4c2444110,
        type: 3}
    - time: 0.26666668
      value: {fileID: 3238160121105584486, guid: 38b31c722d1f44662838a0b4c2444110,
        type: 3}
    - time: 0.3
      value: {fileID: -2039709752086492608, guid: 38b31c722d1f44662838a0b4c2444110,
        type: 3}
    - time: 0.33333334
      value: {fileID: 3238160121105584486, guid: 38b31c722d1f44662838a0b4c2444110,
        type: 3}
    - time: 0.36666667
      value: {fileID: -2039709752086492608, guid: 38b31c722d1f44662838a0b4c2444110,
        type: 3}
    - time: 0.4
      value: {fileID: 3238160121105584486, guid: 38b31c722d1f44662838a0b4c2444110,
        type: 3}
    - time: 0.43333334
      value: {fileID: -2039709752086492608, guid: 38b31c722d1f44662838a0b4c2444110,
        type: 3}
    - time: 0.46666667
      value: {fileID: 3238160121105584486, guid: 38b31c722d1f44662838a0b4c2444110,
        type: 3}
    - time: 0.5
      value: {fileID: -2039709752086492608, guid: 38b31c722d1f44662838a0b4c2444110,
        type: 3}
    - time: 0.53333336
      value: {fileID: 3238160121105584486, guid: 38b31c722d1f44662838a0b4c2444110,
        type: 3}
    - time: 0.56666666
      value: {fileID: -2039709752086492608, guid: 38b31c722d1f44662838a0b4c2444110,
        type: 3}
    - time: 0.6
      value: {fileID: 3238160121105584486, guid: 38b31c722d1f44662838a0b4c2444110,
        type: 3}
    - time: 0.6333333
      value: {fileID: -2039709752086492608, guid: 38b31c722d1f44662838a0b4c2444110,
        type: 3}
    - time: 0.6666667
      value: {fileID: 3238160121105584486, guid: 38b31c722d1f44662838a0b4c2444110,
        type: 3}
    - time: 0.7
      value: {fileID: -2039709752086492608, guid: 38b31c722d1f44662838a0b4c2444110,
        type: 3}
    - time: 0.73333335
      value: {fileID: 3238160121105584486, guid: 38b31c722d1f44662838a0b4c2444110,
        type: 3}
    - time: 0.76666665
      value: {fileID: -2039709752086492608, guid: 38b31c722d1f44662838a0b4c2444110,
        type: 3}
    - time: 0.8
      value: {fileID: 3238160121105584486, guid: 38b31c722d1f44662838a0b4c2444110,
        type: 3}
    - time: 0.8333333
      value: {fileID: -2039709752086492608, guid: 38b31c722d1f44662838a0b4c2444110,
        type: 3}
    - time: 0.8666667
      value: {fileID: 3238160121105584486, guid: 38b31c722d1f44662838a0b4c2444110,
        type: 3}
    - time: 0.9
      value: {fileID: -2039709752086492608, guid: 38b31c722d1f44662838a0b4c2444110,
        type: 3}
    - time: 0.93333334
      value: {fileID: 3238160121105584486, guid: 38b31c722d1f44662838a0b4c2444110,
        type: 3}
    - time: 0.96666664
      value: {fileID: -2039709752086492608, guid: 38b31c722d1f44662838a0b4c2444110,
        type: 3}
    - time: 1
      value: {fileID: 3238160121105584486, guid: 38b31c722d1f44662838a0b4c2444110,
        type: 3}
    - time: 1.0333333
      value: {fileID: -2039709752086492608, guid: 38b31c722d1f44662838a0b4c2444110,
        type: 3}
    - time: 1.0666667
      value: {fileID: 3238160121105584486, guid: 38b31c722d1f44662838a0b4c2444110,
        type: 3}
    - time: 1.1
      value: {fileID: -2039709752086492608, guid: 38b31c722d1f44662838a0b4c2444110,
        type: 3}
    - time: 1.1333333
      value: {fileID: 3238160121105584486, guid: 38b31c722d1f44662838a0b4c2444110,
        type: 3}
    - time: 1.1666666
      value: {fileID: -2039709752086492608, guid: 38b31c722d1f44662838a0b4c2444110,
        type: 3}
    - time: 1.2
      value: {fileID: 3238160121105584486, guid: 38b31c722d1f44662838a0b4c2444110,
        type: 3}
    - time: 1.2333333
      value: {fileID: -2039709752086492608, guid: 38b31c722d1f44662838a0b4c2444110,
        type: 3}
    - time: 1.2666667
      value: {fileID: 3238160121105584486, guid: 38b31c722d1f44662838a0b4c2444110,
        type: 3}
    - time: 1.3
      value: {fileID: -2039709752086492608, guid: 38b31c722d1f44662838a0b4c2444110,
        type: 3}
    - time: 1.3333334
      value: {fileID: 3238160121105584486, guid: 38b31c722d1f44662838a0b4c2444110,
        type: 3}
    - time: 1.3666667
      value: {fileID: -2039709752086492608, guid: 38b31c722d1f44662838a0b4c2444110,
        type: 3}
    attribute: m_Sprite
    path: 
    classID: 212
    script: {fileID: 0}
  m_SampleRate: 30
  m_WrapMode: 0
  m_Bounds:
    m_Center: {x: 0, y: 0, z: 0}
    m_Extent: {x: 0, y: 0, z: 0}
  m_ClipBindingConstant:
    genericBindings:
    - serializedVersion: 2
      path: 0
      attribute: 0
      script: {fileID: 0}
      typeID: 212
      customType: 23
      isPPtrCurve: 1
    pptrCurveMapping:
    - {fileID: -6814648958607787102, guid: 38b31c722d1f44662838a0b4c2444110, type: 3}
    - {fileID: 3238160121105584486, guid: 38b31c722d1f44662838a0b4c2444110, type: 3}
    - {fileID: -2039709752086492608, guid: 38b31c722d1f44662838a0b4c2444110, type: 3}
    - {fileID: -2039709752086492608, guid: 38b31c722d1f44662838a0b4c2444110, type: 3}
    - {fileID: 3238160121105584486, guid: 38b31c722d1f44662838a0b4c2444110, type: 3}
    - {fileID: -2039709752086492608, guid: 38b31c722d1f44662838a0b4c2444110, type: 3}
    - {fileID: 3238160121105584486, guid: 38b31c722d1f44662838a0b4c2444110, type: 3}
    - {fileID: -2039709752086492608, guid: 38b31c722d1f44662838a0b4c2444110, type: 3}
    - {fileID: 3238160121105584486, guid: 38b31c722d1f44662838a0b4c2444110, type: 3}
    - {fileID: -2039709752086492608, guid: 38b31c722d1f44662838a0b4c2444110, type: 3}
    - {fileID: 3238160121105584486, guid: 38b31c722d1f44662838a0b4c2444110, type: 3}
    - {fileID: -2039709752086492608, guid: 38b31c722d1f44662838a0b4c2444110, type: 3}
    - {fileID: 3238160121105584486, guid: 38b31c722d1f44662838a0b4c2444110, type: 3}
    - {fileID: -2039709752086492608, guid: 38b31c722d1f44662838a0b4c2444110, type: 3}
    - {fileID: 3238160121105584486, guid: 38b31c722d1f44662838a0b4c2444110, type: 3}
    - {fileID: -2039709752086492608, guid: 38b31c722d1f44662838a0b4c2444110, type: 3}
    - {fileID: 3238160121105584486, guid: 38b31c722d1f44662838a0b4c2444110, type: 3}
    - {fileID: -2039709752086492608, guid: 38b31c722d1f44662838a0b4c2444110, type: 3}
    - {fileID: 3238160121105584486, guid: 38b31c722d1f44662838a0b4c2444110, type: 3}
    - {fileID: -2039709752086492608, guid: 38b31c722d1f44662838a0b4c2444110, type: 3}
    - {fileID: 3238160121105584486, guid: 38b31c722d1f44662838a0b4c2444110, type: 3}
    - {fileID: -2039709752086492608, guid: 38b31c722d1f44662838a0b4c2444110, type: 3}
    - {fileID: 3238160121105584486, guid: 38b31c722d1f44662838a0b4c2444110, type: 3}
    - {fileID: -2039709752086492608, guid: 38b31c722d1f44662838a0b4c2444110, type: 3}
    - {fileID: 3238160121105584486, guid: 38b31c722d1f44662838a0b4c2444110, type: 3}
    - {fileID: -2039709752086492608, guid: 38b31c722d1f44662838a0b4c2444110, type: 3}
    - {fileID: 3238160121105584486, guid: 38b31c722d1f44662838a0b4c2444110, type: 3}
    - {fileID: -2039709752086492608, guid: 38b31c722d1f44662838a0b4c2444110, type: 3}
    - {fileID: 3238160121105584486, guid: 38b31c722d1f44662838a0b4c2444110, type: 3}
    - {fileID: -2039709752086492608, guid: 38b31c722d1f44662838a0b4c2444110, type: 3}
    - {fileID: 3238160121105584486, guid: 38b31c722d1f44662838a0b4c2444110, type: 3}
    - {fileID: -2039709752086492608, guid: 38b31c722d1f44662838a0b4c2444110, type: 3}
    - {fileID: 3238160121105584486, guid: 38b31c722d1f44662838a0b4c2444110, type: 3}
    - {fileID: -2039709752086492608, guid: 38b31c722d1f44662838a0b4c2444110, type: 3}
    - {fileID: 3238160121105584486, guid: 38b31c722d1f44662838a0b4c2444110, type: 3}
    - {fileID: -2039709752086492608, guid: 38b31c722d1f44662838a0b4c2444110, type: 3}
    - {fileID: 3238160121105584486, guid: 38b31c722d1f44662838a0b4c2444110, type: 3}
    - {fileID: -2039709752086492608, guid: 38b31c722d1f44662838a0b4c2444110, type: 3}
    - {fileID: 3238160121105584486, guid: 38b31c722d1f44662838a0b4c2444110, type: 3}
    - {fileID: -2039709752086492608, guid: 38b31c722d1f44662838a0b4c2444110, type: 3}
    - {fileID: 3238160121105584486, guid: 38b31c722d1f44662838a0b4c2444110, type: 3}
    - {fileID: -2039709752086492608, guid: 38b31c722d1f44662838a0b4c2444110, type: 3}
  m_AnimationClipSettings:
    serializedVersion: 2
    m_AdditiveReferencePoseClip: {fileID: 0}
    m_AdditiveReferencePoseTime: 0
    m_StartTime: 0
    m_StopTime: 1.4
    m_OrientationOffsetY: 0
    m_Level: 0
    m_CycleOffset: 0
    m_HasAdditiveReferencePose: 0
    m_LoopTime: 1
    m_LoopBlend: 0
    m_LoopBlendOrientation: 0
    m_LoopBlendPositionY: 0
    m_LoopBlendPositionXZ: 0
    m_KeepOriginalOrientation: 0
    m_KeepOriginalPositionY: 1
    m_KeepOriginalPositionXZ: 0
    m_HeightFromFeet: 0
    m_Mirror: 0
  m_EditorCurves: []
  m_EulerEditorCurves: []
  m_HasGenericRootTransform: 0
  m_HasMotionFloatCurves: 0
  m_Events: []
