%YAML 1.1
%TAG !u! tag:unity3d.com,2011:
--- !u!74 &7400000
AnimationClip:
  m_ObjectHideFlags: 0
  m_CorrespondingSourceObject: {fileID: 0}
  m_PrefabInstance: {fileID: 0}
  m_PrefabAsset: {fileID: 0}
  m_Name: FreeFalling
  serializedVersion: 6
  m_Legacy: 0
  m_Compressed: 0
  m_UseHighQualityCurve: 1
  m_RotationCurves: []
  m_CompressedRotationCurves: []
  m_EulerCurves: []
  m_PositionCurves: []
  m_ScaleCurves: []
  m_FloatCurves: []
  m_PPtrCurves:
  - curve:
    - time: 0
      value: {fileID: 8104659332651674686, guid: 38b31c722d1f44662838a0b4c2444110,
        type: 3}
    - time: 0.033333335
      value: {fileID: 1446601722011446204, guid: 38b31c722d1f44662838a0b4c2444110,
        type: 3}
    - time: 0.06666667
      value: {fileID: 4824490877352187525, guid: 38b31c722d1f44662838a0b4c2444110,
        type: 3}
    - time: 0.1
      value: {fileID: 2836388723848087873, guid: 38b31c722d1f44662838a0b4c2444110,
        type: 3}
    - time: 0.13333334
      value: {fileID: -1706645769382349721, guid: 38b31c722d1f44662838a0b4c2444110,
        type: 3}
    - time: 0.16666667
      value: {fileID: -3923596197502961647, guid: 38b31c722d1f44662838a0b4c2444110,
        type: 3}
    - time: 0.2
      value: {fileID: 1772258116107982618, guid: 38b31c722d1f44662838a0b4c2444110,
        type: 3}
    - time: 0.23333333
      value: {fileID: 3539271586221223118, guid: 38b31c722d1f44662838a0b4c2444110,
        type: 3}
    - time: 0.26666668
      value: {fileID: 6063740217749908584, guid: 38b31c722d1f44662838a0b4c2444110,
        type: 3}
    - time: 0.3
      value: {fileID: 6973155737840522822, guid: 38b31c722d1f44662838a0b4c2444110,
        type: 3}
    - time: 0.33333334
      value: {fileID: -8861625233159714775, guid: 38b31c722d1f44662838a0b4c2444110,
        type: 3}
    - time: 0.36666667
      value: {fileID: 6289652051391100141, guid: 38b31c722d1f44662838a0b4c2444110,
        type: 3}
    - time: 0.4
      value: {fileID: -5824182895353780938, guid: 38b31c722d1f44662838a0b4c2444110,
        type: 3}
    - time: 0.43333334
      value: {fileID: 4555069399989552060, guid: 38b31c722d1f44662838a0b4c2444110,
        type: 3}
    - time: 0.46666667
      value: {fileID: -428990708286815877, guid: 38b31c722d1f44662838a0b4c2444110,
        type: 3}
    - time: 0.5
      value: {fileID: 3933842882125910243, guid: 38b31c722d1f44662838a0b4c2444110,
        type: 3}
    - time: 0.53333336
      value: {fileID: 8553387997014777268, guid: 38b31c722d1f44662838a0b4c2444110,
        type: 3}
    - time: 0.56666666
      value: {fileID: -2872838465844745272, guid: 38b31c722d1f44662838a0b4c2444110,
        type: 3}
    - time: 0.6
      value: {fileID: -5560683918791008785, guid: 38b31c722d1f44662838a0b4c2444110,
        type: 3}
    - time: 0.6333333
      value: {fileID: 8289104647228368186, guid: 38b31c722d1f44662838a0b4c2444110,
        type: 3}
    - time: 0.6666667
      value: {fileID: -7023699185911516089, guid: 38b31c722d1f44662838a0b4c2444110,
        type: 3}
    - time: 0.7
      value: {fileID: 2524499528490128453, guid: 38b31c722d1f44662838a0b4c2444110,
        type: 3}
    - time: 0.73333335
      value: {fileID: 7621674681801945373, guid: 38b31c722d1f44662838a0b4c2444110,
        type: 3}
    - time: 0.76666665
      value: {fileID: 1741291021054656339, guid: 38b31c722d1f44662838a0b4c2444110,
        type: 3}
    - time: 0.8
      value: {fileID: -29238874690762961, guid: 38b31c722d1f44662838a0b4c2444110,
        type: 3}
    - time: 0.8333333
      value: {fileID: -5637400912122438084, guid: 38b31c722d1f44662838a0b4c2444110,
        type: 3}
    - time: 0.8666667
      value: {fileID: 8496469597499153716, guid: 38b31c722d1f44662838a0b4c2444110,
        type: 3}
    - time: 0.9
      value: {fileID: -2105313308443611920, guid: 38b31c722d1f44662838a0b4c2444110,
        type: 3}
    - time: 0.93333334
      value: {fileID: 5508452004922397066, guid: 38b31c722d1f44662838a0b4c2444110,
        type: 3}
    - time: 0.96666664
      value: {fileID: -3809027791514705414, guid: 38b31c722d1f44662838a0b4c2444110,
        type: 3}
    - time: 1
      value: {fileID: 9139863425818160703, guid: 38b31c722d1f44662838a0b4c2444110,
        type: 3}
    - time: 1.0333333
      value: {fileID: -6867959173585503507, guid: 38b31c722d1f44662838a0b4c2444110,
        type: 3}
    - time: 1.0666667
      value: {fileID: -998949114300456468, guid: 38b31c722d1f44662838a0b4c2444110,
        type: 3}
    - time: 1.1
      value: {fileID: -2697574628215807217, guid: 38b31c722d1f44662838a0b4c2444110,
        type: 3}
    - time: 1.1333333
      value: {fileID: -7574666625626688207, guid: 38b31c722d1f44662838a0b4c2444110,
        type: 3}
    - time: 1.1666666
      value: {fileID: 8044443751306915756, guid: 38b31c722d1f44662838a0b4c2444110,
        type: 3}
    - time: 1.2
      value: {fileID: -2788266205509991270, guid: 38b31c722d1f44662838a0b4c2444110,
        type: 3}
    - time: 1.2333333
      value: {fileID: -5820046734795694431, guid: 38b31c722d1f44662838a0b4c2444110,
        type: 3}
    - time: 1.2666667
      value: {fileID: 5235674170988512438, guid: 38b31c722d1f44662838a0b4c2444110,
        type: 3}
    - time: 1.3
      value: {fileID: 3755812918114277249, guid: 38b31c722d1f44662838a0b4c2444110,
        type: 3}
    - time: 1.3333334
      value: {fileID: 2494911569518097417, guid: 38b31c722d1f44662838a0b4c2444110,
        type: 3}
    - time: 1.3666667
      value: {fileID: 5189532704463556313, guid: 38b31c722d1f44662838a0b4c2444110,
        type: 3}
    - time: 1.4
      value: {fileID: -1044978109057088667, guid: 38b31c722d1f44662838a0b4c2444110,
        type: 3}
    - time: 1.4333333
      value: {fileID: 3446213748770199354, guid: 38b31c722d1f44662838a0b4c2444110,
        type: 3}
    - time: 1.4666667
      value: {fileID: 8558889682710067712, guid: 38b31c722d1f44662838a0b4c2444110,
        type: 3}
    - time: 1.5
      value: {fileID: -9139834183598814652, guid: 38b31c722d1f44662838a0b4c2444110,
        type: 3}
    - time: 1.5333333
      value: {fileID: 9119611866770350281, guid: 38b31c722d1f44662838a0b4c2444110,
        type: 3}
    - time: 1.5666667
      value: {fileID: 732511028572384732, guid: 38b31c722d1f44662838a0b4c2444110,
        type: 3}
    - time: 1.6
      value: {fileID: 4956980464604784348, guid: 38b31c722d1f44662838a0b4c2444110,
        type: 3}
    - time: 1.6333333
      value: {fileID: 6046636607719415474, guid: 38b31c722d1f44662838a0b4c2444110,
        type: 3}
    - time: 1.6666666
      value: {fileID: 1821983086227387970, guid: 38b31c722d1f44662838a0b4c2444110,
        type: 3}
    - time: 1.7
      value: {fileID: -6202235135553375390, guid: 38b31c722d1f44662838a0b4c2444110,
        type: 3}
    - time: 1.7333333
      value: {fileID: -7527539121407331618, guid: 38b31c722d1f44662838a0b4c2444110,
        type: 3}
    - time: 1.7666667
      value: {fileID: -3396556396838580329, guid: 38b31c722d1f44662838a0b4c2444110,
        type: 3}
    - time: 1.8
      value: {fileID: 8057670289821891993, guid: 38b31c722d1f44662838a0b4c2444110,
        type: 3}
    - time: 1.8333334
      value: {fileID: -5669224705178667062, guid: 38b31c722d1f44662838a0b4c2444110,
        type: 3}
    - time: 1.8666667
      value: {fileID: -3453440450101085559, guid: 38b31c722d1f44662838a0b4c2444110,
        type: 3}
    - time: 1.9
      value: {fileID: -3374589206513599224, guid: 38b31c722d1f44662838a0b4c2444110,
        type: 3}
    - time: 1.9333333
      value: {fileID: -2434022782769507478, guid: 38b31c722d1f44662838a0b4c2444110,
        type: 3}
    - time: 1.9666667
      value: {fileID: 3455133900834338537, guid: 38b31c722d1f44662838a0b4c2444110,
        type: 3}
    - time: 2
      value: {fileID: 7380816636383955899, guid: 38b31c722d1f44662838a0b4c2444110,
        type: 3}
    - time: 2.0333333
      value: {fileID: -4870202811550052342, guid: 38b31c722d1f44662838a0b4c2444110,
        type: 3}
    - time: 2.0666666
      value: {fileID: 1474846878332578736, guid: 38b31c722d1f44662838a0b4c2444110,
        type: 3}
    - time: 2.1
      value: {fileID: 1073667043606927717, guid: 38b31c722d1f44662838a0b4c2444110,
        type: 3}
    - time: 2.1333334
      value: {fileID: 4994652429727498470, guid: 38b31c722d1f44662838a0b4c2444110,
        type: 3}
    - time: 2.1666667
      value: {fileID: 4361403234709631232, guid: 38b31c722d1f44662838a0b4c2444110,
        type: 3}
    - time: 2.2
      value: {fileID: 4874734082989829883, guid: 38b31c722d1f44662838a0b4c2444110,
        type: 3}
    attribute: m_Sprite
    path: 
    classID: 212
    script: {fileID: 0}
  m_SampleRate: 30
  m_WrapMode: 0
  m_Bounds:
    m_Center: {x: 0, y: 0, z: 0}
    m_Extent: {x: 0, y: 0, z: 0}
  m_ClipBindingConstant:
    genericBindings:
    - serializedVersion: 2
      path: 0
      attribute: 0
      script: {fileID: 0}
      typeID: 212
      customType: 23
      isPPtrCurve: 1
    pptrCurveMapping:
    - {fileID: 8104659332651674686, guid: 38b31c722d1f44662838a0b4c2444110, type: 3}
    - {fileID: 1446601722011446204, guid: 38b31c722d1f44662838a0b4c2444110, type: 3}
    - {fileID: 4824490877352187525, guid: 38b31c722d1f44662838a0b4c2444110, type: 3}
    - {fileID: 2836388723848087873, guid: 38b31c722d1f44662838a0b4c2444110, type: 3}
    - {fileID: -1706645769382349721, guid: 38b31c722d1f44662838a0b4c2444110, type: 3}
    - {fileID: -3923596197502961647, guid: 38b31c722d1f44662838a0b4c2444110, type: 3}
    - {fileID: 1772258116107982618, guid: 38b31c722d1f44662838a0b4c2444110, type: 3}
    - {fileID: 3539271586221223118, guid: 38b31c722d1f44662838a0b4c2444110, type: 3}
    - {fileID: 6063740217749908584, guid: 38b31c722d1f44662838a0b4c2444110, type: 3}
    - {fileID: 6973155737840522822, guid: 38b31c722d1f44662838a0b4c2444110, type: 3}
    - {fileID: -8861625233159714775, guid: 38b31c722d1f44662838a0b4c2444110, type: 3}
    - {fileID: 6289652051391100141, guid: 38b31c722d1f44662838a0b4c2444110, type: 3}
    - {fileID: -5824182895353780938, guid: 38b31c722d1f44662838a0b4c2444110, type: 3}
    - {fileID: 4555069399989552060, guid: 38b31c722d1f44662838a0b4c2444110, type: 3}
    - {fileID: -428990708286815877, guid: 38b31c722d1f44662838a0b4c2444110, type: 3}
    - {fileID: 3933842882125910243, guid: 38b31c722d1f44662838a0b4c2444110, type: 3}
    - {fileID: 8553387997014777268, guid: 38b31c722d1f44662838a0b4c2444110, type: 3}
    - {fileID: -2872838465844745272, guid: 38b31c722d1f44662838a0b4c2444110, type: 3}
    - {fileID: -5560683918791008785, guid: 38b31c722d1f44662838a0b4c2444110, type: 3}
    - {fileID: 8289104647228368186, guid: 38b31c722d1f44662838a0b4c2444110, type: 3}
    - {fileID: -7023699185911516089, guid: 38b31c722d1f44662838a0b4c2444110, type: 3}
    - {fileID: 2524499528490128453, guid: 38b31c722d1f44662838a0b4c2444110, type: 3}
    - {fileID: 7621674681801945373, guid: 38b31c722d1f44662838a0b4c2444110, type: 3}
    - {fileID: 1741291021054656339, guid: 38b31c722d1f44662838a0b4c2444110, type: 3}
    - {fileID: -29238874690762961, guid: 38b31c722d1f44662838a0b4c2444110, type: 3}
    - {fileID: -5637400912122438084, guid: 38b31c722d1f44662838a0b4c2444110, type: 3}
    - {fileID: 8496469597499153716, guid: 38b31c722d1f44662838a0b4c2444110, type: 3}
    - {fileID: -2105313308443611920, guid: 38b31c722d1f44662838a0b4c2444110, type: 3}
    - {fileID: 5508452004922397066, guid: 38b31c722d1f44662838a0b4c2444110, type: 3}
    - {fileID: -3809027791514705414, guid: 38b31c722d1f44662838a0b4c2444110, type: 3}
    - {fileID: 9139863425818160703, guid: 38b31c722d1f44662838a0b4c2444110, type: 3}
    - {fileID: -6867959173585503507, guid: 38b31c722d1f44662838a0b4c2444110, type: 3}
    - {fileID: -998949114300456468, guid: 38b31c722d1f44662838a0b4c2444110, type: 3}
    - {fileID: -2697574628215807217, guid: 38b31c722d1f44662838a0b4c2444110, type: 3}
    - {fileID: -7574666625626688207, guid: 38b31c722d1f44662838a0b4c2444110, type: 3}
    - {fileID: 8044443751306915756, guid: 38b31c722d1f44662838a0b4c2444110, type: 3}
    - {fileID: -2788266205509991270, guid: 38b31c722d1f44662838a0b4c2444110, type: 3}
    - {fileID: -5820046734795694431, guid: 38b31c722d1f44662838a0b4c2444110, type: 3}
    - {fileID: 5235674170988512438, guid: 38b31c722d1f44662838a0b4c2444110, type: 3}
    - {fileID: 3755812918114277249, guid: 38b31c722d1f44662838a0b4c2444110, type: 3}
    - {fileID: 2494911569518097417, guid: 38b31c722d1f44662838a0b4c2444110, type: 3}
    - {fileID: 5189532704463556313, guid: 38b31c722d1f44662838a0b4c2444110, type: 3}
    - {fileID: -1044978109057088667, guid: 38b31c722d1f44662838a0b4c2444110, type: 3}
    - {fileID: 3446213748770199354, guid: 38b31c722d1f44662838a0b4c2444110, type: 3}
    - {fileID: 8558889682710067712, guid: 38b31c722d1f44662838a0b4c2444110, type: 3}
    - {fileID: -9139834183598814652, guid: 38b31c722d1f44662838a0b4c2444110, type: 3}
    - {fileID: 9119611866770350281, guid: 38b31c722d1f44662838a0b4c2444110, type: 3}
    - {fileID: 732511028572384732, guid: 38b31c722d1f44662838a0b4c2444110, type: 3}
    - {fileID: 4956980464604784348, guid: 38b31c722d1f44662838a0b4c2444110, type: 3}
    - {fileID: 6046636607719415474, guid: 38b31c722d1f44662838a0b4c2444110, type: 3}
    - {fileID: 1821983086227387970, guid: 38b31c722d1f44662838a0b4c2444110, type: 3}
    - {fileID: -6202235135553375390, guid: 38b31c722d1f44662838a0b4c2444110, type: 3}
    - {fileID: -7527539121407331618, guid: 38b31c722d1f44662838a0b4c2444110, type: 3}
    - {fileID: -3396556396838580329, guid: 38b31c722d1f44662838a0b4c2444110, type: 3}
    - {fileID: 8057670289821891993, guid: 38b31c722d1f44662838a0b4c2444110, type: 3}
    - {fileID: -5669224705178667062, guid: 38b31c722d1f44662838a0b4c2444110, type: 3}
    - {fileID: -3453440450101085559, guid: 38b31c722d1f44662838a0b4c2444110, type: 3}
    - {fileID: -3374589206513599224, guid: 38b31c722d1f44662838a0b4c2444110, type: 3}
    - {fileID: -2434022782769507478, guid: 38b31c722d1f44662838a0b4c2444110, type: 3}
    - {fileID: 3455133900834338537, guid: 38b31c722d1f44662838a0b4c2444110, type: 3}
    - {fileID: 7380816636383955899, guid: 38b31c722d1f44662838a0b4c2444110, type: 3}
    - {fileID: -4870202811550052342, guid: 38b31c722d1f44662838a0b4c2444110, type: 3}
    - {fileID: 1474846878332578736, guid: 38b31c722d1f44662838a0b4c2444110, type: 3}
    - {fileID: 1073667043606927717, guid: 38b31c722d1f44662838a0b4c2444110, type: 3}
    - {fileID: 4994652429727498470, guid: 38b31c722d1f44662838a0b4c2444110, type: 3}
    - {fileID: 4361403234709631232, guid: 38b31c722d1f44662838a0b4c2444110, type: 3}
    - {fileID: 4874734082989829883, guid: 38b31c722d1f44662838a0b4c2444110, type: 3}
  m_AnimationClipSettings:
    serializedVersion: 2
    m_AdditiveReferencePoseClip: {fileID: 0}
    m_AdditiveReferencePoseTime: 0
    m_StartTime: 0
    m_StopTime: 2.2333333
    m_OrientationOffsetY: 0
    m_Level: 0
    m_CycleOffset: 0
    m_HasAdditiveReferencePose: 0
    m_LoopTime: 1
    m_LoopBlend: 0
    m_LoopBlendOrientation: 0
    m_LoopBlendPositionY: 0
    m_LoopBlendPositionXZ: 0
    m_KeepOriginalOrientation: 0
    m_KeepOriginalPositionY: 1
    m_KeepOriginalPositionXZ: 0
    m_HeightFromFeet: 0
    m_Mirror: 0
  m_EditorCurves: []
  m_EulerEditorCurves: []
  m_HasGenericRootTransform: 0
  m_HasMotionFloatCurves: 0
  m_Events: []
