<?xml version="1.0" encoding="utf-8"?>
<!-- Generator: Adobe Illustrator 23.0.1, SVG Export Plug-In . SVG Version: 6.00 Build 0)  -->
<svg version="1.2" baseProfile="tiny" id="Layer_1" xmlns="http://www.w3.org/2000/svg" xmlns:xlink="http://www.w3.org/1999/xlink"
	 x="0px" y="0px" viewBox="0 0 1920 1080" xml:space="preserve">
<path d="M1780.55,362.76c-8.17,0.5-16.59-0.07-24.79-0.07c-18.58,0-37.15,0-55.73,0c-11.67,0-23.36-0.19-35.02-0.07
	c-9.19,0.1-17.21,2.96-26.53,3.02c-10.77,0.07-20.63-3.14-31.48-3.02c-15.13,0.17-30.28,0.16-45.42,0
	c-12.65-0.14-24.46,3.04-37.12,2.96c-8.64-0.05-17.29,0.02-25.93,0.01c-6.26,0-12.92,0.69-19.15,0.15
	c-5.03-0.44-9.09-2.77-14.12-3.2c-12.3-1.05-25.24,0.15-37.61,0.15c-10.47,0-20.94,0.06-31.4-0.07
	c-13.44-0.16-26.37,3.02-39.99,2.96c-11.27-0.05-22.54-0.05-33.81,0c-17.41,0.08-34.44-2.1-51.8-2.81
	c-12.89-0.53-25.22-2.9-38.26-2.97c-9.69-0.05-18.39,2.82-27.92,2.89c-12.8,0.09-25.42,2.35-38.2,3.18
	c-19.44,1.26-38.4,2.61-57.95,2.62c-46.33,0.02-92.65,0-138.98,0c-13.19,0-27.59,1.69-40.59-0.65c-11.85-2.13-22.75-2.25-34.87-2.25
	c-14.43-0.01-28.86,0.07-43.28,0.01c-19.37-0.07-38.05,3.12-57.35,2.81c-14.98-0.24-29.45,3.26-44.51,2.98
	c-18.96-0.36-37.83,2.88-56.94,2.88c-20.82,0-41.21-1.88-61.93-2.8c-8.9-0.39-17.07-2.91-26.06-3.13
	c-12.73-0.32-25.52,0.16-38.25,0.15c-42.45-0.02-84.9,0-127.34,0c-39.92,0-79.42,2.59-119.26,2.97
	c-23.17,0.22-46.21-2.83-69.47-3.03c-17.31-0.15-34.13,3.05-51.51,2.96c-16.57-0.09-33.3,0.81-49.85,0.16
	c-7.64-0.3-30.08-8.29-36.75-2.18c-0.88,7.82,4.43,14.71,4,22.5c-0.54,9.74-4.43,18.13-4.31,28.18c0.1,8.41-0.61,16.96,0.71,25.3
	c1.99,12.48,1.5,23.77,2.1,36.38c0.46,9.64,3.23,18.49,3.12,28.25c-0.09,7.77-0.02,15.54-0.1,23.31
	c-0.14,14.29,3.03,27.85,2.94,42.29c-0.11,17.14,4.76,33.29,5.93,50.31c0.66,9.56-1.34,18.18-2.79,27.46
	c-1.81,11.58,1.31,22.49,2.4,33.92c0.49,5.19-1.95,16.11,1,20.64c3.64,5.6,25.89,5.57,31.43,5.67c17.97,0.35,35.85,5.62,54.06,2.25
	c7.86-1.46,14.59-4.97,22.66-5.33c10.82-0.49,20.5-1.02,31.35-2.15c12.86-1.34,25.87-0.69,38.77-0.58
	c16.66,0.15,32.6-4.03,49.17-5.29c49.86-3.77,99.21,2.32,148.91,2.32c19.34,0,38.68,0.14,58.02,0.01
	c10.84-0.07,21.01,1.74,31.78,2.64c10.87,0.91,22.06,0.25,32.98,0.25c29.58,0,59.17,0,88.75,0c14.13,0,28.58,0.8,42.66-0.25
	c25.37-1.9,52.31-10.78,77.72-8.52c32.29,2.88,66.96,0.07,99.74,0.07c24.23,0,48.46,0,72.69,0c10.47,0,21.1-0.53,31.55-0.11
	c9.26,0.38,18,2.96,27.32,3.07c17.11,0.22,33.35,2.82,50.6,2.83c8.57,0,17.6-1.05,26.09-0.15c4,0.43,7.56,1.71,11.46,2.47
	c7.21,1.4,12.32-0.51,19.21-1.69c15.04-2.56,31.32-0.63,46.5-0.63c11.1-0.01,22.2-0.09,33.3,0.03c7.67,0.08,13.84-2.13,21.23-3.08
	c9.63-1.24,20.2,0.15,29.98,0.15c5.9,0,11.81-0.14,17.71-0.07c9.11,0.12,17.62,2.64,26.68,3.12c29.04,1.52,58.09-1.93,87.08,1.3
	c30.81,3.43,62.4,1.37,93.38,1.45c20.54,0.05,40.33-2.88,60.85-2.9c10.07-0.01,20.25-0.44,30.31-0.11
	c14.53,0.47,28.02,3.91,42.8,3.22c12.48-0.58,24.49-3.31,37-3.18c8.61,0.09,18.08,1.13,26.64,0.22c8.73-0.93,16.37-3.09,25.36-3.04
	c8.75,0.05,17.49-0.07,26.24,0.03c0.98,0.01,7.08,0.91,8.83-0.19c4.1-2.57,5.12-11.11,6.32-15.18c2.81-9.54,7.05-18.25,10.29-27.54
	c5.41-15.5-2.58-33.91-2.46-50.34c0.07-9.76,4.41-18.98,2.39-28.64c-2.14-10.25-2.55-19.06-2.39-29.76
	c0.17-11.39,3.89-22.58,3.17-34.02c-0.76-12.19-4.36-25.22-6.72-37.17c-1.56-7.87-4.77-14.68-5.15-22.63
	c-0.4-8.53,0.07-17.22,0.07-25.76c0-8.27-0.39-16.65-0.13-24.91c0.35-11.57,6.89-20.96,10.16-31.84"/>
</svg>
