%YAML 1.1
%TAG !u! tag:unity3d.com,2011:
--- !u!1045 &1
EditorBuildSettings:
  m_ObjectHideFlags: 0
  serializedVersion: 2
  m_Scenes:
  - enabled: 0
    path: Assets/Scenes/Home.unity
    guid: c4ae9e04cd339473fb9816837016aa7b
  - enabled: 0
    path: Assets/Scenes/Between.unity
    guid: 06d3d71633923411094b3a5f32a6aeb1
  - enabled: 0
    path: Assets/Scenes/Level0.unity
    guid: 57152745a160b4e55984fde3d2c1e4da
  - enabled: 0
    path: Assets/Scenes/Level1.unity
    guid: e2f8692735df141fabb7e1c9ad42080f
  - enabled: 1
    path: Assets/Scenes/Game.unity
    guid: 05022c44284234b15997ced67543d9c9
  m_configObjects: {}
