%YAML 1.1
%TAG !u! tag:unity3d.com,2011:
--- !u!78 &1
TagManager:
  serializedVersion: 2
  tags:
  - Box
  - NoPause
  layers:
  - Default
  - TransparentFX
  - Ignore Raycast
  - 
  - Water
  - UI
  - 
  - 
  - Box
  - Threat
  - Finish
  - Player
  - Explodable
  - Expolder
  - Accelerator
  - Jumper
  - RuntimeAction
  - Bonus
  - RollingCircles
  - AllowAddVelReducing
  - Checker
  - Spring
  - Rotating
  - Slide
  - 
  - 
  - 
  - 
  - 
  - 
  - 
  - 
  m_SortingLayers:
  - name: Bacground
    uniqueID: 192031405
    locked: 0
  - name: Back2
    uniqueID: 2737314181
    locked: 0
  - name: Back1
    uniqueID: 4006643077
    locked: 0
  - name: Back
    uniqueID: 1020772509
    locked: 0
  - name: Plants0
    uniqueID: 2544142135
    locked: 0
  - name: Plants1
    uniqueID: 3339691113
    locked: 0
  - name: Plants2
    uniqueID: 1015420045
    locked: 0
  - name: Default
    uniqueID: 0
    locked: 0
  - name: Plants3
    uniqueID: 3847315855
    locked: 0
  - name: Front
    uniqueID: 1561864781
    locked: 0
  - name: Very Front
    uniqueID: 3385974769
    locked: 0
  - name: Text
    uniqueID: 3408135385
    locked: 0
