%YAML 1.1
%TAG !u! tag:unity3d.com,2011:
--- !u!213 &21300000
Sprite:
  m_ObjectHideFlags: 0
  m_CorrespondingSourceObject: {fileID: 0}
  m_PrefabInstance: {fileID: 0}
  m_PrefabAsset: {fileID: 0}
  m_Name: 78
  m_Rect:
    serializedVersion: 2
    x: 0
    y: 53
    width: 55
    height: 78
  m_Offset: {x: 0, y: 0}
  m_Border: {x: 0, y: 0, z: 0, w: 0}
  m_PixelsToUnits: 100
  m_Pivot: {x: 0.5, y: 0.5}
  m_Extrude: 0
  m_IsPolygon: 0
  m_AtlasName: 
  m_PackingTag: 
  m_RenderDataKey:
    00000000000000000000000000000000: 0
  m_AtlasTags: []
  m_SpriteAtlas: {fileID: 0}
  m_RD:
    serializedVersion: 3
    texture: {fileID: 2800000, guid: 128c9ed1fcf7345059c36bf1984063e1, type: 3}
    alphaTexture: {fileID: 0}
    secondaryTextures: []
    m_SubMeshes:
    - serializedVersion: 2
      firstByte: 0
      indexCount: 12
      topology: 0
      baseVertex: 0
      firstVertex: 0
      vertexCount: 6
      localAABB:
        m_Center: {x: 0, y: 0, z: 0}
        m_Extent: {x: 0, y: 0, z: 0}
    m_IndexBuffer: 050004000300000003000400010003000000020001000000
    m_VertexData:
      serializedVersion: 3
      m_VertexCount: 6
      m_Channels:
      - stream: 0
        offset: 0
        format: 0
        dimension: 3
      - stream: 0
        offset: 0
        format: 0
        dimension: 0
      - stream: 0
        offset: 0
        format: 0
        dimension: 0
      - stream: 0
        offset: 0
        format: 0
        dimension: 0
      - stream: 1
        offset: 0
        format: 0
        dimension: 2
      - stream: 0
        offset: 0
        format: 0
        dimension: 0
      - stream: 0
        offset: 0
        format: 0
        dimension: 0
      - stream: 0
        offset: 0
        format: 0
        dimension: 0
      - stream: 0
        offset: 0
        format: 0
        dimension: 0
      - stream: 0
        offset: 0
        format: 0
        dimension: 0
      - stream: 0
        offset: 0
        format: 0
        dimension: 0
      - stream: 0
        offset: 0
        format: 0
        dimension: 0
      - stream: 0
        offset: 0
        format: 0
        dimension: 0
      - stream: 0
        offset: 0
        format: 0
        dimension: 0
      m_DataSize: 128
      _typelessdata: e17a143e14aec73e00000000cdcc8c3e14aec7be00000000cdcc8c3eec51b83e00000000000000be14aec7be00000000cdcc8cbe14aec73e00000000cdcc8cbe9a99193e000000000000000000000000000000000000000000000000000000000000000000000000000000000000000000000000000000000000000000000000
    m_Bindpose: []
    textureRect:
      serializedVersion: 2
      x: 0
      y: 53
      width: 55
      height: 78
    textureRectOffset: {x: 0, y: 0}
    atlasRectOffset: {x: -1, y: -1}
    settingsRaw: 64
    uvTransform: {x: 100, y: 27.5, z: 100, w: 92}
    downscaleMultiplier: 1
  m_AtlasRD:
    serializedVersion: 3
    texture: {fileID: 2800000, guid: 128c9ed1fcf7345059c36bf1984063e1, type: 3}
    alphaTexture: {fileID: 0}
    secondaryTextures: []
    m_SubMeshes:
    - serializedVersion: 2
      firstByte: 0
      indexCount: 12
      topology: 0
      baseVertex: 0
      firstVertex: 0
      vertexCount: 6
      localAABB:
        m_Center: {x: 0, y: 0, z: 0}
        m_Extent: {x: 0, y: 0, z: 0}
    m_IndexBuffer: 050004000300000003000400010003000000020001000000
    m_VertexData:
      serializedVersion: 3
      m_VertexCount: 6
      m_Channels:
      - stream: 0
        offset: 0
        format: 0
        dimension: 3
      - stream: 0
        offset: 0
        format: 0
        dimension: 0
      - stream: 0
        offset: 0
        format: 0
        dimension: 0
      - stream: 0
        offset: 0
        format: 0
        dimension: 0
      - stream: 1
        offset: 0
        format: 0
        dimension: 2
      - stream: 0
        offset: 0
        format: 0
        dimension: 0
      - stream: 0
        offset: 0
        format: 0
        dimension: 0
      - stream: 0
        offset: 0
        format: 0
        dimension: 0
      - stream: 0
        offset: 0
        format: 0
        dimension: 0
      - stream: 0
        offset: 0
        format: 0
        dimension: 0
      - stream: 0
        offset: 0
        format: 0
        dimension: 0
      - stream: 0
        offset: 0
        format: 0
        dimension: 0
      - stream: 0
        offset: 0
        format: 0
        dimension: 0
      - stream: 0
        offset: 0
        format: 0
        dimension: 0
      m_DataSize: 128
      _typelessdata: e17a143e14aec73e00000000cdcc8c3e14aec7be00000000cdcc8c3eec51b83e00000000000000be14aec7be00000000cdcc8cbe14aec73e00000000cdcc8cbe9a99193e000000000000000000000000000000000000000000000000000000000000000000000000000000000000000000000000000000000000000000000000
    m_Bindpose: []
    textureRect:
      serializedVersion: 2
      x: 0
      y: 53
      width: 55
      height: 78
    textureRectOffset: {x: 0, y: 0}
    atlasRectOffset: {x: -1, y: -1}
    settingsRaw: 64
    uvTransform: {x: 100, y: 27.5, z: 100, w: 92}
    downscaleMultiplier: 1
  m_PhysicsShape: []
  m_Bones: []
  m_SpriteID: 
